{
    "success": true,
    "genaratedAt": 1559710924989,
    "status": "success",
    "responseData": {
        "source": "TestUpgrade12345",
        "name": "TestUpgrade1",
        "backType": "stack",
        "globalInputList": [
            {
                "path": "$.$jason.head.actions.$load.options.mockup",
                "fieldPosition": "Screen",
                "fieldType": "String",
                "inputName": "displayName"
            }
        ],
        "globalOutputList": [
            {
                "outputName": "displayName",
                "fieldType": "String"
            }
        ],
        "actionList": [
            {
                "actionName": "action_Button_infoBar",
                "apiName": "JSON_LOGIN",
                "targetType": "Extra",
                "target": "self",
                "confirmDialog": {
                    "needConfirm": false
                },
                "endAlert": {
                    "needConfirm": false
                },
                "globalInputList": [
                    {
                        "defaultValue": "",
                        "labelName": "",
                        "localPath": "$.$jason.head.actions.initial_form.success.options",
                        "xpath": "xpath:/user",
                        "name": "user",
                        "path": "user",
                        "promote": "false",
                        "rawPath": "user",
                        "serviceName": "JSON_LOGIN",
                        "type": "String",
                        "useGlobal": true,
                        "valueFrom": "Manual",
                        "value": "256262",
                        "valueProperties": ""
                    },
                    {
                        "defaultValue": "",
                        "labelName": "",
                        "localPath": "$.$jason.head.actions.initial_form.success.options",
                        "xpath": "xpath:/password",
                        "name": "password",
                        "path": "password",
                        "promote": "false",
                        "rawPath": "password",
                        "serviceName": "JSON_LOGIN",
                        "type": "String",
                        "useGlobal": false,
                        "valueFrom": "",
                        "value": "This is success",
                        "valueProperties": ""
                    },
                    {
                        "defaultValue": "",
                        "labelName": "",
                        "localPath": "$.$jason.head.actions.initial_form.success.options",
                        "xpath": "xpath:/addon",
                        "name": "addon",
                        "path": "addon",
                        "promote": "false",
                        "rawPath": "addon",
                        "serviceName": "JSON_LOGIN",
                        "type": "String",
                        "useGlobal": false,
                        "valueFrom": "",
                        "value": "akanit",
                        "valueProperties": ""
                    }
                ],
                "globalOutputList": [
                    {
                        "fieldName": "username",
                        "defaultValue": "",
                        "secure": "false",
                        "required": "false",
                        "path": "username",
                        "promote": "true",
                        "xpath": "xpath:/resultData/username",
                        "selectionType": "",
                        "rawPath": "resultData.username",
                        "labelName": "",
                        "serviceId": "",
                        "value": "admin",
                        "frontFieldName": "",
                        "placeHolder": "",
                        "regexMsg": "",
                        "submitform": "",
                        "limitSize": "",
                        "maxlength": "",
                        "searchLocation": "",
                        "index": "",
                        "displayFormat": "",
                        "submitFormat": "",
                        "codeSuccessType": null,
                        "readOnly": "false",
                        "guildlineImage": "",
                        "serviceName": "JSON_LOGIN",
                        "regexType": "none-regex",
                        "regex": "",
                        "field": "username",
                        "successValue": "",
                        "dataSetType": "",
                        "name": "username",
                        "fieldType": "String",
                        "defaultLocation": ""
                    },
                    {
                        "fieldName": "displayName",
                        "defaultValue": "",
                        "secure": "false",
                        "required": "false",
                        "path": "displayName",
                        "promote": "true",
                        "xpath": "xpath:/resultData/displayName",
                        "selectionType": "",
                        "rawPath": "resultData.displayName",
                        "labelName": "",
                        "serviceId": "",
                        "value": "admin11",
                        "frontFieldName": "",
                        "placeHolder": "",
                        "regexMsg": "",
                        "submitform": "",
                        "limitSize": "",
                        "maxlength": "",
                        "searchLocation": "",
                        "index": "",
                        "displayFormat": "",
                        "submitFormat": "",
                        "codeSuccessType": null,
                        "readOnly": "false",
                        "guildlineImage": "",
                        "serviceName": "JSON_LOGIN",
                        "regexType": "none-regex",
                        "regex": "",
                        "field": "displayName",
                        "successValue": "",
                        "dataSetType": "",
                        "name": "displayName",
                        "fieldType": "String",
                        "defaultLocation": ""
                    },
                    {
                        "fieldName": "akanit",
                        "defaultValue": "",
                        "secure": "false",
                        "required": "false",
                        "path": "akanit",
                        "promote": "true",
                        "xpath": "xpath:/resultData/akanit",
                        "selectionType": "",
                        "rawPath": "resultData.akanit",
                        "labelName": "",
                        "serviceId": "",
                        "value": "addon",
                        "frontFieldName": "",
                        "placeHolder": "",
                        "regexMsg": "",
                        "submitform": "",
                        "limitSize": "",
                        "maxlength": "",
                        "searchLocation": "",
                        "index": "",
                        "displayFormat": "",
                        "submitFormat": "",
                        "codeSuccessType": null,
                        "readOnly": "false",
                        "guildlineImage": "",
                        "serviceName": "JSON_LOGIN",
                        "regexType": "none-regex",
                        "regex": "",
                        "field": "akanit",
                        "successValue": "",
                        "dataSetType": "",
                        "name": "akanit",
                        "fieldType": "String",
                        "defaultLocation": ""
                    }
                ],
                "config": null
            },
            {
                "actionName": "action_button_1",
                "apiName": "Do Nothing",
                "targetType": "Extra",
                "target": "self",
                "confirmDialog": {
                    "needConfirm": false
                },
                "endAlert": {
                    "needConfirm": false
                },
                "globalInputList": [],
                "globalOutputList": [],
                "config": null
            },
            {
                "actionName": "action_button_2",
                "apiName": "Do Nothing",
                "targetType": "Extra",
                "target": "self",
                "confirmDialog": {
                    "needConfirm": false
                },
                "endAlert": {
                    "needConfirm": false
                },
                "globalInputList": [],
                "globalOutputList": [],
                "config": null
            },
            {
                "actionName": "action_button_3",
                "apiName": "Do Nothing",
                "targetType": "Extra",
                "target": "self",
                "confirmDialog": {
                    "needConfirm": false
                },
                "endAlert": {
                    "needConfirm": false
                },
                "globalInputList": [],
                "globalOutputList": [],
                "config": null
            },
            {
                "actionName": "action_button_4",
                "apiName": "Do Nothing",
                "targetType": "Extra",
                "target": "self",
                "confirmDialog": {
                    "needConfirm": false
                },
                "endAlert": {
                    "needConfirm": false
                },
                "globalInputList": [],
                "globalOutputList": [],
                "config": null
            },
            {
                "actionName": "action_button_5",
                "apiName": "Do Nothing",
                "targetType": "Extra",
                "target": "self",
                "confirmDialog": {
                    "needConfirm": false
                },
                "endAlert": {
                    "needConfirm": false
                },
                "globalInputList": [],
                "globalOutputList": [],
                "config": null
            },
            {
                "actionName": "action_button_6",
                "apiName": "Do Nothing",
                "targetType": "Extra",
                "target": "self",
                "confirmDialog": {
                    "needConfirm": false
                },
                "endAlert": {
                    "needConfirm": false
                },
                "globalInputList": [],
                "globalOutputList": [],
                "config": null
            },
            {
                "actionName": "action_button_7",
                "apiName": "Do Nothing",
                "targetType": "Extra",
                "target": "self",
                "confirmDialog": {
                    "needConfirm": false
                },
                "endAlert": {
                    "needConfirm": false
                },
                "globalInputList": [],
                "globalOutputList": [],
                "config": null
            },
            {
                "actionName": "action_button_8",
                "apiName": "Do Nothing",
                "targetType": "Extra",
                "target": "self",
                "confirmDialog": {
                    "needConfirm": false
                },
                "endAlert": {
                    "needConfirm": false
                },
                "globalInputList": [],
                "globalOutputList": [],
                "config": null
            },
            {
                "actionName": "action_button_9",
                "apiName": "Do Nothing",
                "targetType": "Extra",
                "target": "self",
                "confirmDialog": {
                    "needConfirm": false
                },
                "endAlert": {
                    "needConfirm": false
                },
                "globalInputList": [],
                "globalOutputList": [],
                "config": null
            },
            {
                "actionName": "action_button_10",
                "apiName": "Do Nothing",
                "targetType": "Extra",
                "target": "self",
                "confirmDialog": {
                    "needConfirm": false
                },
                "endAlert": {
                    "needConfirm": false
                },
                "globalInputList": [],
                "globalOutputList": [],
                "config": null
            },
            {
                "actionName": "action_button_11",
                "apiName": "Do Nothing",
                "targetType": "Extra",
                "target": "self",
                "confirmDialog": {
                    "needConfirm": false
                },
                "endAlert": {
                    "needConfirm": false
                },
                "globalInputList": [],
                "globalOutputList": [],
                "config": null
            },
            {
                "actionName": "action_button_12",
                "apiName": "Do Nothing",
                "targetType": "Extra",
                "target": "self",
                "confirmDialog": {
                    "needConfirm": false
                },
                "endAlert": {
                    "needConfirm": false
                },
                "globalInputList": [],
                "globalOutputList": [],
                "config": null
            },
            {
                "actionName": "action_submit_ads1",
                "apiName": "Do Nothing",
                "targetType": "Extra",
                "target": "self",
                "confirmDialog": {
                    "needConfirm": false
                },
                "endAlert": {
                    "needConfirm": false
                },
                "globalInputList": [],
                "globalOutputList": [],
                "config": null
            },
            {
                "actionName": "action_submit_ads2",
                "apiName": "Do Nothing",
                "targetType": "Extra",
                "target": "self",
                "confirmDialog": {
                    "needConfirm": false
                },
                "endAlert": {
                    "needConfirm": false
                },
                "globalInputList": [],
                "globalOutputList": [],
                "config": null
            },
            {
                "actionName": "action_submit_ads3",
                "apiName": "Do Nothing",
                "targetType": "Extra",
                "target": "self",
                "confirmDialog": {
                    "needConfirm": false
                },
                "endAlert": {
                    "needConfirm": false
                },
                "globalInputList": [],
                "globalOutputList": [],
                "config": null
            },
            {
                "actionName": "action_submit_ads4",
                "apiName": "Do Nothing",
                "targetType": "Extra",
                "target": "self",
                "confirmDialog": {
                    "needConfirm": false
                },
                "endAlert": {
                    "needConfirm": false
                },
                "globalInputList": [],
                "globalOutputList": [],
                "config": null
            }
        ],
        "uuid": "65459922-9d27-45b4-b75d-870c8e2e9ef0",
        "remark": "",
        "status": "Draft",
        "needUpgrade": false,
        "needUpgradeStoryBoard": false,
        "version": "2",
        "currentVersion": "2",
        "pinPage": null,
        "lastUpdate": "2019-06-05T05:00:45.187Z",
        "uiJson": "{\"$jason\":{\"head\":{\"title\":\"DMA 5.0 : MENU_007-Image_Menu_in_Grid_Style_with_info_bar_button\",\"actions\":{\"$load\":{\"type\":\"$set\",\"options\":{\"mockup\":\"\"},\"success\":{\"type\":\"$render\",\"success\":{}},\"error\":{}}}}}}"
    }
}