{
  "success": true,
  "genaratedAt": 1571211831205,
  "status": "success",
  "responseData": {
    "targetType": [{
      "name": "Extra",
      "api": "listExtraTarget"
    }, {
      "name": "Screen",
      "api": "listAppUi"
    }]
  }
}
