{
  "success": true,
  "genaratedAt": 1571211629605,
  "status": "success",
  "responseData": {
    "storyList": [{
      "storyName": "test_input",
      "needUpgrade": false,
      "lastUpdate": "2019/07/25 15:24:39",
      "remark": "",
      "lastPublish": "2019/07/25 15:25:20",
      "status": "Draft"
    }, {
      "storyName": "qa_nk",
      "needUpgrade": false,
      "lastUpdate": "2019/10/07 13:48:18",
      "remark": "ห้ามแก้ไข",
      "lastPublish": "2019/09/30 10:24:29",
      "status": "Draft"
    }, {
      "storyName": "storyboard_bank",
      "needUpgrade": false,
      "lastUpdate": "2019/10/11 16:02:52",
      "remark": "",
      "lastPublish": "2019/10/11 16:03:01",
      "status": "Draft"
    }, {
      "storyName": "login_toon",
      "needUpgrade": false,
      "lastUpdate": "2019/08/23 18:05:48",
      "remark": "",
      "lastPublish": "2019/08/23 17:50:19",
      "status": "Draft"
    }, {
      "storyName": "Jaipun_tonooy",
      "needUpgrade": false,
      "lastUpdate": "2019/08/27 17:45:18",
      "remark": "",
      "lastPublish": "2019/08/27 17:45:26",
      "status": "Draft"
    }, {
      "storyName": "test12",
      "needUpgrade": false,
      "lastUpdate": "2019/09/05 10:11:12",
      "remark": "",
      "lastPublish": "",
      "status": "Draft"
    }, {
      "storyName": "QAA",
      "needUpgrade": false,
      "lastUpdate": "2019/09/19 14:48:15",
      "remark": "",
      "lastPublish": "2019/09/19 14:48:42",
      "status": "Draft"
    }, {
      "storyName": "test_detail",
      "needUpgrade": false,
      "lastUpdate": "2019/09/19 18:18:01",
      "remark": "",
      "lastPublish": "",
      "status": "Draft"
    }, {
      "storyName": "Mo",
      "needUpgrade": false,
      "lastUpdate": "2019/09/30 14:10:02",
      "remark": "ของโม",
      "lastPublish": "2019/09/30 14:10:14",
      "status": "Draft"
    }, {
      "storyName": "test15",
      "needUpgrade": true,
      "lastUpdate": "2019/09/27 12:03:29",
      "remark": "",
      "lastPublish": "",
      "status": "Draft"
    }, {
      "storyName": "vv",
      "needUpgrade": false,
      "lastUpdate": "2019/09/27 16:56:58",
      "remark": "v",
      "lastPublish": "2019/09/27 17:17:11",
      "status": "Draft"
    }, {
      "storyName": "Test_profile",
      "needUpgrade": false,
      "lastUpdate": "2019/09/30 17:07:55",
      "remark": "",
      "lastPublish": "2019/09/30 17:08:01",
      "status": "Draft"
    }, {
      "storyName": "motestcolorja",
      "needUpgrade": false,
      "lastUpdate": "2019/10/07 18:04:06",
      "remark": "",
      "lastPublish": "2019/10/07 18:04:10",
      "status": "Draft"
    }, {
      "storyName": "motestcolor2",
      "needUpgrade": false,
      "lastUpdate": "2019/10/07 17:46:19",
      "remark": "",
      "lastPublish": "2019/10/07 17:46:22",
      "status": "Draft"
    }, {
      "storyName": "motestcolor3",
      "needUpgrade": false,
      "lastUpdate": "2019/10/08 16:09:21",
      "remark": "",
      "lastPublish": "2019/10/08 16:09:34",
      "status": "Draft"
    }, {
      "storyName": "dev_1234",
      "needUpgrade": false,
      "lastUpdate": "2019/10/08 13:45:16",
      "remark": "",
      "lastPublish": "",
      "status": "Draft"
    }]
  }
}
